{
  "versions": [
    {
      "id": "d3bd3043-dbd6-499f-b9a3-cb6082a496e6",
      "dateCreated": "1994-08-26 12:25:08"
    },
    {
      "id": "eaf0d574-dabe-467d-b46f-87030f60dafa",
      "dateCreated": "1993-12-11 07:46:10"
    },
    {
      "id": "59bf7314-c503-4323-9ab6-2bab6f4cf5bc",
      "dateCreated": "1980-05-30 14:37:46"
    },
    {
      "id": "3c342026-4f49-4fd3-a63d-e7614fd30e6a",
      "dateCreated": "1989-03-06 18:56:56"
    },
    {
      "id": "37850b49-76f3-42fe-8f4c-774eb36f08f3",
      "dateCreated": "1990-08-04 18:12:44"
    },
    {
      "id": "896377a7-2adc-45c2-afba-6780f4e74c5d",
      "dateCreated": "2002-06-26 07:32:21"
    },
    {
      "id": "7a66dfee-ec34-4e41-be94-13234d3f42ff",
      "dateCreated": "2016-05-10 14:34:41"
    },
    {
      "id": "272900bb-be61-4b62-bc60-b859bc3c0a63",
      "dateCreated": "1985-12-11 21:54:42"
    },
    {
      "id": "e184546a-f603-40a5-aeb7-8486b031a75c",
      "dateCreated": "1983-01-07 00:47:35"
    },
    {
      "id": "757ce968-887b-48d6-a4ab-e541baa672ce",
      "dateCreated": "1974-03-19 06:52:29"
    },
    {
      "id": "98db2216-3e9f-4a27-9017-8a70e32432b7",
      "dateCreated": "1971-02-08 09:38:16"
    },
    {
      "id": "cb73a25e-df22-48bd-883b-d7a3dc9206ac",
      "dateCreated": "2008-04-03 15:48:13"
    },
    {
      "id": "ad8c532d-bd62-48eb-8c2c-0bc4201834ae",
      "dateCreated": "2011-02-15 08:33:44"
    },
    {
      "id": "339dcfa1-dc0a-4549-b72b-57752534bae3",
      "dateCreated": "2004-08-11 23:05:27"
    },
    {
      "id": "e30ed8aa-9c10-422c-b31f-dd9f3b10f915",
      "dateCreated": "1994-07-20 19:28:14"
    },
    {
      "id": "ddec18c7-2e56-48fd-b72e-565baa9370b5",
      "dateCreated": "1997-11-20 15:48:18"
    },
    {
      "id": "8eede534-195c-49ce-bb3c-9f71d5abdb51",
      "dateCreated": "2001-07-20 15:21:58"
    },
    {
      "id": "7c53bb00-456d-468a-94da-3e39d94399d4",
      "dateCreated": "1996-11-16 21:31:15"
    },
    {
      "id": "03d02fcd-53bb-4a8f-a38f-63ff6fbf31e6",
      "dateCreated": "1995-04-29 18:43:26"
    },
    {
      "id": "d61e48de-fbbb-4fd4-ab73-1e5fceb0e837",
      "dateCreated": "2011-06-05 23:18:04"
    },
    {
      "id": "0390e14f-208c-4e85-81c5-eceaabdbb6bb",
      "dateCreated": "2000-04-15 08:01:40"
    },
    {
      "id": "757bcdbe-4dc5-42e8-bcb5-18b4a105f26b",
      "dateCreated": "1996-11-22 20:22:14"
    },
    {
      "id": "cf1fd1a6-2c4b-405b-8325-8ba65bd7a939",
      "dateCreated": "1980-10-21 03:03:49"
    },
    {
      "id": "459ce0cd-f026-4179-a984-27700e86c0d3",
      "dateCreated": "1979-01-28 23:28:35"
    },
    {
      "id": "9d13bdd2-acad-4db6-9588-aa8c5f9ec4fb",
      "dateCreated": "1987-08-07 03:48:13"
    },
    {
      "id": "d28d9ae1-ccaf-4759-9009-54a8d70602c1",
      "dateCreated": "1981-01-14 06:45:14"
    },
    {
      "id": "068178b3-bce3-4a74-a27e-ead0d3241998",
      "dateCreated": "2004-11-19 17:04:49"
    },
    {
      "id": "71b743c0-1e9e-48e1-988e-fb55a9c7b049",
      "dateCreated": "2000-06-23 06:42:03"
    },
    {
      "id": "da0c8f63-95f4-45ad-b01d-eb349481d88e",
      "dateCreated": "1970-04-25 17:15:58"
    },
    {
      "id": "4e5a6b29-443d-4b9a-b302-ff7e0b882d50",
      "dateCreated": "2005-08-24 12:39:22"
    },
    {
      "id": "04d96daf-c58e-44b7-8b53-598583d733d6",
      "dateCreated": "2001-09-26 23:21:52"
    },
    {
      "id": "1c39b4d9-4840-4194-aab3-a1c820b4725a",
      "dateCreated": "2007-09-17 18:40:20"
    },
    {
      "id": "8bf38dbf-34f0-41f0-9def-7986a217f674",
      "dateCreated": "1997-02-22 22:14:23"
    },
    {
      "id": "42daae38-9b4e-4a18-af85-639602e5fba1",
      "dateCreated": "1984-05-29 07:47:29"
    },
    {
      "id": "2767fa1d-81a5-42b4-9e8c-411601a9c718",
      "dateCreated": "2000-12-02 19:03:41"
    },
    {
      "id": "5b0415f3-1ed9-464c-b73a-f39421ff449a",
      "dateCreated": "1982-01-18 23:39:26"
    },
    {
      "id": "407a020d-aeca-4b09-bb03-540b73a618f1",
      "dateCreated": "1994-05-14 11:22:05"
    },
    {
      "id": "13fea812-8873-4d62-9eac-c817e7e875be",
      "dateCreated": "2009-03-17 05:13:40"
    },
    {
      "id": "48cb512f-03ca-4b18-a13b-e7b838cb2139",
      "dateCreated": "2003-10-24 00:47:48"
    },
    {
      "id": "caa357d6-2d6b-4286-9170-5d8b42816b6f",
      "dateCreated": "2003-05-01 20:19:21"
    },
    {
      "id": "1b0828de-cd81-4717-9f2b-a0bd43a3e836",
      "dateCreated": "1973-01-07 09:49:46"
    },
    {
      "id": "4491792d-4cb9-4557-9405-48f08fdbadf4",
      "dateCreated": "1973-04-01 08:23:32"
    },
    {
      "id": "c70a5173-3b34-4199-86d5-9dc0b30aea32",
      "dateCreated": "1979-06-08 20:50:11"
    },
    {
      "id": "0532e01a-a3f5-4134-a9a0-30701777a20a",
      "dateCreated": "2000-09-03 05:14:37"
    },
    {
      "id": "726bc865-6def-4b9f-9b86-3a3768643233",
      "dateCreated": "2003-07-19 14:46:59"
    },
    {
      "id": "841a697d-4a8d-400d-8bac-2c61f4f9e2e9",
      "dateCreated": "2008-09-22 21:14:17"
    },
    {
      "id": "4ec03bf6-0b19-4b07-bbb5-a6011f4a7bf7",
      "dateCreated": "1989-03-17 09:40:29"
    },
    {
      "id": "ccf5275d-a706-478d-8c59-bcbca86e29b4",
      "dateCreated": "1984-09-11 08:15:48"
    },
    {
      "id": "f7708dfe-eb6c-4cd2-a174-bbd052fe7ea3",
      "dateCreated": "1986-11-10 18:35:55"
    },
    {
      "id": "61c17b31-3b0c-4f6f-8c47-d941e617ff09",
      "dateCreated": "2011-01-29 03:34:26"
    }
  ]
}